c:\users\edwin manjarrez\documents\graphics\cs3600\project1\project1\debug\vc142.pdb
c:\users\edwin manjarrez\documents\graphics\cs3600\project1\project1\debug\vc142.idb
c:\users\edwin manjarrez\documents\graphics\cs3600\project1\project1\debug\circle.obj
c:\users\edwin manjarrez\documents\graphics\cs3600\project1\project1\debug\graphics.obj
c:\users\edwin manjarrez\documents\graphics\cs3600\project1\debug\project1.ilk
c:\users\edwin manjarrez\documents\graphics\cs3600\project1\debug\project1.exe
c:\users\edwin manjarrez\documents\graphics\cs3600\project1\debug\project1.pdb
c:\users\edwin manjarrez\documents\graphics\cs3600\project1\project1\debug\project1.tlog\cl.command.1.tlog
c:\users\edwin manjarrez\documents\graphics\cs3600\project1\project1\debug\project1.tlog\cl.read.1.tlog
c:\users\edwin manjarrez\documents\graphics\cs3600\project1\project1\debug\project1.tlog\cl.write.1.tlog
c:\users\edwin manjarrez\documents\graphics\cs3600\project1\project1\debug\project1.tlog\link.command.1.tlog
c:\users\edwin manjarrez\documents\graphics\cs3600\project1\project1\debug\project1.tlog\link.read.1.tlog
c:\users\edwin manjarrez\documents\graphics\cs3600\project1\project1\debug\project1.tlog\link.write.1.tlog
