^C:\USERS\EDWIN MANJARREZ\DOCUMENTS\GRAPHICS\PROJECT3\DEBUG\COLLISION.OBJ|C:\USERS\EDWIN MANJARREZ\DOCUMENTS\GRAPHICS\PROJECT3\DEBUG\FORCES.OBJ|C:\USERS\EDWIN MANJARREZ\DOCUMENTS\GRAPHICS\PROJECT3\DEBUG\GRAPHICS_SPRINGS.OBJ|C:\USERS\EDWIN MANJARREZ\DOCUMENTS\GRAPHICS\PROJECT3\DEBUG\PARTICLE.OBJ|C:\USERS\EDWIN MANJARREZ\DOCUMENTS\GRAPHICS\PROJECT3\DEBUG\VECTOR.OBJ|C:\USERS\EDWIN MANJARREZ\DOCUMENTS\GRAPHICS\PROJECT3\GLUT32.LIB
/OUT:"C:\USERS\EDWIN MANJARREZ\DOCUMENTS\GRAPHICS\PROJECT3\DEBUG\PROJECT3.EXE" /INCREMENTAL /NOLOGO KERNEL32.LIB USER32.LIB GDI32.LIB WINSPOOL.LIB COMDLG32.LIB ADVAPI32.LIB SHELL32.LIB OLE32.LIB OLEAUT32.LIB UUID.LIB ODBC32.LIB ODBCCP32.LIB /MANIFEST /MANIFESTUAC:"level='asInvoker' uiAccess='false'" /manifest:embed /DEBUG:FASTLINK /PDB:"C:\USERS\EDWIN MANJARREZ\DOCUMENTS\GRAPHICS\PROJECT3\DEBUG\PROJECT3.PDB" /SUBSYSTEM:CONSOLE /TLBID:1 /DYNAMICBASE /NXCOMPAT /IMPLIB:"C:\USERS\EDWIN MANJARREZ\DOCUMENTS\GRAPHICS\PROJECT3\DEBUG\PROJECT3.LIB" /MACHINE:X86 DEBUG\COLLISION.OBJ
DEBUG\FORCES.OBJ
DEBUG\GRAPHICS_SPRINGS.OBJ
DEBUG\PARTICLE.OBJ
DEBUG\VECTOR.OBJ
GLUT32.LIB
