^C:\USERS\EDWIN MANJARREZ\DOCUMENTS\GRAPHICS\CS3600\PROJECT1\PROJECT1\CIRCLE.CPP
/c /ZI /JMC /nologo /W3 /WX- /diagnostics:column /sdl /Od /Oy- /D WIN32 /D _DEBUG /D _CONSOLE /D _UNICODE /D UNICODE /Gm- /EHsc /RTC1 /MDd /GS /fp:precise /permissive- /Zc:wchar_t /Zc:forScope /Zc:inline /Fo"DEBUG\\" /Fd"DEBUG\VC142.PDB" /Gd /TP /analyze- /FC C:\USERS\EDWIN MANJARREZ\DOCUMENTS\GRAPHICS\CS3600\PROJECT1\PROJECT1\CIRCLE.CPP
^C:\USERS\EDWIN MANJARREZ\DOCUMENTS\GRAPHICS\CS3600\GRAPHICS.CPP
/c /ZI /JMC /nologo /W3 /WX- /diagnostics:column /sdl /Od /Oy- /D WIN32 /D _DEBUG /D _CONSOLE /D _UNICODE /D UNICODE /Gm- /EHsc /RTC1 /MDd /GS /fp:precise /permissive- /Zc:wchar_t /Zc:forScope /Zc:inline /Fo"DEBUG\\" /Fd"DEBUG\VC142.PDB" /Gd /TP /analyze- /FC C:\USERS\EDWIN MANJARREZ\DOCUMENTS\GRAPHICS\CS3600\GRAPHICS.CPP
