^C:\USERS\EDWIN MANJARREZ\DOCUMENTS\GRAPHICS\CS3600\GLUT32.LIB|C:\USERS\EDWIN MANJARREZ\DOCUMENTS\GRAPHICS\CS3600\PROJECT1\PROJECT1\DEBUG\CIRCLE.OBJ|C:\USERS\EDWIN MANJARREZ\DOCUMENTS\GRAPHICS\CS3600\PROJECT1\PROJECT1\DEBUG\GRAPHICS.OBJ
C:\USERS\EDWIN MANJARREZ\DOCUMENTS\GRAPHICS\CS3600\PROJECT1\DEBUG\PROJECT1.EXE
C:\USERS\EDWIN MANJARREZ\DOCUMENTS\GRAPHICS\CS3600\PROJECT1\DEBUG\PROJECT1.ILK
C:\USERS\EDWIN MANJARREZ\DOCUMENTS\GRAPHICS\CS3600\PROJECT1\DEBUG\PROJECT1.PDB
