^C:\USERS\EDWIN MANJARREZ\DOCUMENTS\GRAPHICS\PROJECT4\DEBUG\GRAPHICS.OBJ|C:\USERS\EDWIN MANJARREZ\DOCUMENTS\GRAPHICS\PROJECT4\DEBUG\MAZE.OBJ|C:\USERS\EDWIN MANJARREZ\DOWNLOADS\MAZEDOWNLOAD\MAZE1B\GLUT32.LIB
/OUT:"C:\USERS\EDWIN MANJARREZ\DOCUMENTS\GRAPHICS\PROJECT4\DEBUG\PROJECT4.EXE" /INCREMENTAL /NOLOGO KERNEL32.LIB USER32.LIB GDI32.LIB WINSPOOL.LIB COMDLG32.LIB ADVAPI32.LIB SHELL32.LIB OLE32.LIB OLEAUT32.LIB UUID.LIB ODBC32.LIB ODBCCP32.LIB /MANIFEST /MANIFESTUAC:"level='asInvoker' uiAccess='false'" /manifest:embed /DEBUG:FASTLINK /PDB:"C:\USERS\EDWIN MANJARREZ\DOCUMENTS\GRAPHICS\PROJECT4\DEBUG\PROJECT4.PDB" /SUBSYSTEM:CONSOLE /TLBID:1 /DYNAMICBASE /NXCOMPAT /IMPLIB:"C:\USERS\EDWIN MANJARREZ\DOCUMENTS\GRAPHICS\PROJECT4\DEBUG\PROJECT4.LIB" /MACHINE:X86 DEBUG\GRAPHICS.OBJ
DEBUG\MAZE.OBJ
..\..\..\DOWNLOADS\MAZEDOWNLOAD\MAZE1B\GLUT32.LIB
