^C:\USERS\EDWIN MANJARREZ\DOCUMENTS\GRAPHICS\PROJECT2\DEBUG\CIRCLE.OBJ|C:\USERS\EDWIN MANJARREZ\DOCUMENTS\GRAPHICS\PROJECT2\DEBUG\GRAPHICS.OBJ|C:\USERS\EDWIN MANJARREZ\DOCUMENTS\GRAPHICS\PROJECT2\GLUT32.LIB
C:\USERS\EDWIN MANJARREZ\DOCUMENTS\GRAPHICS\PROJECT2\DEBUG\PROJECT2.EXE
C:\USERS\EDWIN MANJARREZ\DOCUMENTS\GRAPHICS\PROJECT2\DEBUG\PROJECT2.ILK
C:\USERS\EDWIN MANJARREZ\DOCUMENTS\GRAPHICS\PROJECT2\DEBUG\PROJECT2.PDB
